Using the babytime R package • babytime
…
Plug the weekly plans into the babytime function.

Draw up weekly plans

An example of generating a weekly plan for one parent is here:

parent1_wp <- work_plan("2018-08-25",   # Baby's due date
    on_leave(26),                         # 6 months on leave
    working(26, "Mon-Fri 09:00-17:00"),   # 6 months working full time
    working(104, "Mon-Thu 09:00-17:00")   # 6 months working mon-thu
)
#> Warning: `data_frame()` was deprecated in tibble 1.1.0.
#> Please use `tibble()` instead.
parent1_wp
#> # A tibble: 1,092 × 4
#>     week section section_week at_work                                         
#>    <int>   <int>        <dbl> <Interval>                                      
#>  1     1       1            1 2018-08-20 09:00:00 UTC--2018-08-20 09:00:00 UTC
#>  2     1       1            1 2018-08-21 09:00:00 UTC--2018-08-21 09:00:00 UTC
#>  3     1       1            1 2018-08-22 09:00:00 UTC--2018-08-22 09:00:00 UTC
#>  4     1       1            1 2018-08-23 09:00:00 UTC--2018-08-23 09:00:00 UTC
#>  5     1       1            1 2018-08-24 09:00:00 UTC--2018-08-24 09:00:00 UTC
#>  6     1       1            1 2018-08-25 09:00:00 UTC--2018-08-25 09:00:00 UTC
#>  7     1       1            1 2018-08-26 09:00:00 UTC--2018-08-26 09:00:00 UTC
#>  8     2       1            2 2018-08-27 09:00:00 UTC--2018-08-27 09:00:00 UTC
#>  9     2       1            2 2018-08-28 09:00:00 UTC--2018-08-28 09:00:00 UTC
#> 10     2       1            2 2018-08-29 09:00:00 UTC--2018-08-29 09:00:00 UTC
#> # … with 1,082 more rows
…
